<?xml version="1.0" encoding="UTF-8" standalone="no"?>
<!-- lily was here -->

<svg
   width="128"
   height="131"
   version="1.1"
   id="svg5"
   xmlns="http://www.w3.org/2000/svg"
   xmlns:svg="http://www.w3.org/2000/svg">
  <g
     fill="none"
     stroke="#f23269"
     stroke-width="12"
     stroke-linecap="round"
     transform="translate(-2.6779163,8.8832506)">
    <rect
       style="stroke-width:9.66344;stroke-linejoin:round;stroke-miterlimit:4;stroke-opacity:1"
       width="64" height="44"
       x="34" y="53" />
    <path
       style="stroke-linejoin:round;stroke-miterlimit:4;stroke-opacity:1"
       d="m 41,-1 24,34" />
    <path
       style="stroke-linejoin:round;stroke-miterlimit:4;stroke-opacity:1"
       d="m 65,32 36,-35" />
    <path
       style="stroke-linecap:butt;stroke-linejoin:round;stroke-miterlimit:4;stroke-opacity:1"
       d="m 124,60 c 0,0 0,-26 0,-26 0,0 -110,0 -110,0 0,0 0,83 0,83 0,0 110,0 110,0 0,0 0,-29 0,-29" />
  </g>
</svg>
